{
"dtstamp": 1544074825
,
"id": 578
,
"immutable": 0
,
"notes": "Updated by Framework \u0027shadows\u0027 on 12\/06\/2018 00:40:25 EST"
,
"settings": {
"mode": "paymentcard_list"
,
"template_filename": "acln-paymentcards.mvc"
,
"template_id": 437
}
,
"source": ""
,
"templ_id": 437
,
"user_id": 0
}
