{
"dtstamp": 1606186836
,
"id": 1160
,
"immutable": 0
,
"notes": "Page BASK updated"
,
"settings": {
"template_filename": "bask-PaypalErrorMsg.mvc"
,
"template_id": 279
}
,
"source": ""
,
"templ_id": 279
,
"user_id": 4
}
