{
"dtstamp": 1595990316
,
"id": 822
,
"immutable": 0
,
"notes": "Updated by Framework \u0027shadows\u0027 on \u002807\/28\/2020 22:38:36 EDT\u0029"
,
"settings": {
"basket": {
"advanced": 1
,
"applycoupons": 1
,
"b_height": 208
,
"b_width": 208
,
"button_wish": 1
,
"constrain": "B"
,
"discounts": 1
,
"editable": 1
,
"groups": 1
,
"handling": 1
,
"imagetypes": [
"main"
]
,
"lineitemcoupons": 1
,
"lineitemdiscounts": 1
,
"lineitemprice": "base"
,
"redeemgiftcerts": 0
,
"salestax": 1
,
"shipping": 1
,
"splitpayments": 0
,
"template_filename": "bask-basket.mvc"
,
"template_id": 76
}
,
"hdft": {
"footer": {
"template_filename": "bask-footer.mvc"
,
"template_id": 75
}
,
"header": {
"template_filename": "bask-header.mvc"
,
"template_id": 74
}
}
,
"PaypalDisblAdr": {
"template_filename": "bask-PaypalDisblAdr.mvc"
,
"template_id": 281
}
,
"PaypalErrorMsg": {
"template_filename": "bask-PaypalErrorMsg.mvc"
,
"template_id": 279
}
,
"PaypalExButton": {
"advanced": 0
,
"locale": "en_US"
,
"style": {
"color": "gold"
,
"fundingicons": 0
,
"label": "checkout"
,
"layout": "vertical"
,
"shape": "rect"
,
"size": "responsive"
,
"tagline": 0
}
,
"template_filename": "bask-PaypalExButton.mvc"
,
"template_id": 280
}
,
"seo_settings": {
"cat_lit": "category"
,
"cat_lit_choice": "category"
,
"plit_in_bc": 0
,
"prod_lit": "product"
,
"prod_lit_choice": "product"
,
"sc_always": 0
,
"sf_active": 0
,
"sl_active": 0
,
"sm_active": 1
,
"suffix": "html"
,
"suffix_choice": "html"
,
"surlprefix": "https:\/\/www.joyouscs.com\/"
,
"url_delim": "\/"
,
"urlprefix": "http:\/\/www.joyouscs.com\/"
}
,
"shipestimate": {
"advanced": 1
,
"mode": "basket"
,
"results_display": "inline"
,
"results_page": "SERT"
,
"ship_addr1": 0
,
"ship_addr2": 0
,
"ship_city": 0
,
"ship_cntry": 1
,
"ship_comp": 0
,
"ship_countries": {
"US": 1
}
,
"ship_email": 0
,
"ship_fax": 0
,
"ship_fname": 0
,
"ship_lname": 0
,
"ship_phone": 0
,
"ship_state": 1
,
"ship_zip": 1
,
"template_filename": "bask-shipestimate.mvc"
,
"template_id": 431
}
}
,
"source": ""
,
"templ_id": 73
,
"user_id": 0
}
