{
"dtstamp": 1544074825
,
"id": 565
,
"immutable": 0
,
"notes": "Updated by Framework \u0027shadows\u0027 on 12\/06\/2018 00:40:25 EST"
,
"settings": {
"additionalprice": "base"
,
"advanced": 1
,
"b_height": 360
,
"b_width": 360
,
"constrain": "B"
,
"default_sort": "id_desc"
,
"display": {
"discounts": 1
,
"handling": 1
,
"salestax": 1
,
"shipping": 1
}
,
"field_cncldate": 0
,
"field_code": 1
,
"field_firstdate": 1
,
"field_lastdate": 1
,
"field_name": 1
,
"field_nextdate": 1
,
"field_options": 1
,
"field_paymentmethod": 1
,
"field_price": 1
,
"field_quantity": 1
,
"field_shippingaddress": 1
,
"field_termproc": 0
,
"field_termrem": 1
,
"hide_cancelled": "A"
,
"hide_cancelled_days": 14
,
"imagetypes": [
"main"
]
,
"items_per_page_filter": 1
,
"lineitemdiscounts": 1
,
"page_disp_count": 3
,
"per_page": 12
,
"price": "sale"
,
"reverse_default_disp_order": 0
,
"sort_by": {
"code": 0
,
"firstdate": 0
,
"lastdate": 0
,
"name": 0
,
"nextdate": 0
,
"payment": 0
,
"price": 0
,
"shipping": 0
,
"switch": 0
,
"termproc": 0
,
"termrem": 0
,
"total": 0
}
,
"template_filename": "csub-subscriptions.mvc"
,
"template_id": 252
}
,
"source": ""
,
"templ_id": 252
,
"user_id": 0
}
