{
"dtstamp": 1544071673
,
"id": 335
,
"immutable": 1
,
"notes": "Original"
,
"settings": {
"return": {
"b_height": 63
,
"b_width": 63
,
"constrain": "B"
,
"image": "main"
,
"imagetypes": [
"main"
]
}
}
,
"source": ""
,
"templ_id": 332
,
"user_id": 0
}
