{
"dtstamp": 1544071673
,
"id": 385
,
"immutable": 1
,
"notes": "Original"
,
"settings": {
"toe_subscription_fields": {
"advanced": 0
,
"b_height": 200
,
"b_width": 200
,
"constrain": "B"
,
"display": {
"discounts": 1
,
"handling": 1
,
"salestax": 1
,
"shipping": 1
}
,
"groups": 1
,
"image": "main"
,
"imagetypes": [
"main"
]
,
"lineitemcoupons": 0
,
"lineitemdiscounts": 0
,
"payments": 1
,
"price": "base"
,
"template_filename": "email_subscription_changed-toe_subscription_fields.mvc"
,
"template_id": 383
}
}
,
"source": ""
,
"templ_id": 382
,
"user_id": 0
}
