{
"dtstamp": 1595990318
,
"id": 850
,
"immutable": 0
,
"notes": "Updated by Framework \u0027shadows\u0027 on 07\/28\/2020 22:38:38 EDT"
,
"settings": {
"prevent_template_auto_update": 0
,
"template_filename": "invc-order_customer.mvc"
,
"template_id": 175
}
,
"source": ""
,
"templ_id": 175
,
"user_id": 0
}
