{
"dtstamp": 1595990317
,
"id": 843
,
"immutable": 0
,
"notes": "Updated by Framework \u0027shadows\u0027 on 07\/28\/2020 22:38:37 EDT"
,
"settings": {
"editable": 1
,
"mode": "order"
,
"prevent_template_auto_update": 1
,
"template_filename": "ocst-customer.mvc"
,
"template_id": 87
}
,
"source": ""
,
"templ_id": 87
,
"user_id": 0
}
