{
"dtstamp": 1544074824
,
"id": 521
,
"immutable": 0
,
"notes": "Updated by Framework \u0027shadows\u0027 on 12\/06\/2018 00:40:24 EST"
,
"settings": {
"advanced": 1
,
"applycoupons": 1
,
"b_height": 80
,
"b_width": 80
,
"button_wish": 0
,
"constrain": "B"
,
"discounts": 1
,
"editable": 0
,
"groups": 1
,
"handling": 1
,
"imagetypes": [
"main"
]
,
"lineitemcoupons": 1
,
"lineitemdiscounts": 1
,
"lineitemprice": "base"
,
"redeemgiftcerts": 0
,
"salestax": 1
,
"shipping": 1
,
"splitpayments": 0
,
"template_filename": "ocst-basket.mvc"
,
"template_id": 86
}
,
"source": ""
,
"templ_id": 86
,
"user_id": 0
}
