{
"dtstamp": 1544071674
,
"id": 422
,
"immutable": 1
,
"notes": "Original"
,
"settings": {
"inline_css": {
"advanced": 0
,
"template_filename": "order_invoice-inline_css.mvc"
,
"template_id": 420
}
,
"tbr_order_contents": {
"advanced": 0
,
"b_height": 75
,
"b_width": 75
,
"constrain": "B"
,
"groups": 1
,
"lineitemcoupons": 0
,
"lineitemdiscounts": 0
,
"template_filename": "order_invoice-tbr_order_contents.mvc"
,
"template_id": 421
}
}
,
"source": ""
,
"templ_id": 419
,
"user_id": 0
}
