{
"dtstamp": 1595990316
,
"id": 826
,
"immutable": 0
,
"notes": "Updated by Framework \u0027shadows\u0027 on \u002807\/28\/2020 22:38:36 EDT\u0029"
,
"settings": {
"hdft": {
"footer": {
"template_filename": "ousm-footer.mvc"
,
"template_id": 156
}
,
"header": {
"template_filename": "ousm-header.mvc"
,
"template_id": 155
}
}
,
"seo_settings": {
"cat_lit": "category"
,
"cat_lit_choice": "category"
,
"plit_in_bc": 0
,
"prod_lit": "product"
,
"prod_lit_choice": "product"
,
"sc_always": 0
,
"sf_active": 0
,
"sl_active": 0
,
"sm_active": 1
,
"suffix": "html"
,
"suffix_choice": "html"
,
"surlprefix": "https:\/\/www.joyouscs.com\/"
,
"url_delim": "\/"
,
"urlprefix": "http:\/\/www.joyouscs.com\/"
}
}
,
"source": ""
,
"templ_id": 154
,
"user_id": 0
}
