{
"dtstamp": 1544074823
,
"id": 499
,
"immutable": 0
,
"notes": "Updated by Framework \u0027shadows\u0027 on \u002812\/06\/2018 00:40:23 EST\u0029"
,
"settings": {
"hdft": {
"footer": {
"template_filename": "plmt-footer.mvc"
,
"template_id": 142
}
,
"header": {
"template_filename": "plmt-header.mvc"
,
"template_id": 141
}
}
,
"seo_settings": {
"cat_lit": "category"
,
"cat_lit_choice": "category"
,
"plit_in_bc": 0
,
"prod_lit": "product"
,
"prod_lit_choice": "product"
,
"sc_always": 0
,
"sf_active": 0
,
"sl_active": 0
,
"sm_active": 1
,
"suffix": "html"
,
"suffix_choice": "html"
,
"surlprefix": "https:\/\/www.joyouscs.com\/"
,
"url_delim": "\/"
,
"urlprefix": "http:\/\/www.joyouscs.com\/"
}
}
,
"source": ""
,
"templ_id": 140
,
"user_id": 0
}
