{
"dtstamp": 1602642424
,
"id": 1119
,
"immutable": 0
,
"notes": "Page Update"
,
"settings": {
"all_products_imagemachine": {
"closeup_active": 0
,
"closeup_height": 500
,
"closeup_size": "N"
,
"closeup_width": 500
,
"enabled": 0
,
"head": {
"template_filename": "prod-all_products_imagemachine-head.mvc"
,
"template_id": 556
}
,
"image_height": 100
,
"image_size": "N"
,
"image_width": 100
,
"legacy_image": "N"
,
"preload": 0
,
"thumb_active": 0
,
"thumb_height": 42
,
"thumb_width": 42
}
,
"attributemachine": {
"additional_price_element_id": "price-value-additional"
,
"additionalprice": "base"
,
"dependency_resolution": "first"
,
"discount_element_id": "product-discounts"
,
"displaydiscounts": 1
,
"enabled": 1
,
"inv_element_id": "inventory-message"
,
"inv_short": 0
,
"invalid_msg": "Please select a valid combination of attributes."
,
"missing_radio_msg": "\u003Cbr\u003EAn option must be selected for \u003Cb\u003E\u0025attribute_prompt\u0025\u003C\/b\u003E."
,
"missing_text_msg": "\u003Cbr\u003EA value must be entered for \u003Cb\u003E\u0025attribute_prompt\u0025\u003C\/b\u003E."
,
"predictdiscounts": 1
,
"preload": 1
,
"price": "sale"
,
"price_element_id": "price-value"
,
"swatch_element_id": "swatches"
,
"template_filename": "prod-attributemachine.mvc"
,
"template_id": 58
}
,
"discount_volume": {
"template_filename": "prod-discount_volume.mvc"
,
"template_id": 443
}
,
"hdft": {
"footer": {
"template_filename": "prod-footer.mvc"
,
"template_id": 61
}
,
"header": {
"template_filename": "prod-header.mvc"
,
"template_id": 60
}
}
,
"product_attributes": {
"template_filename": "prod-product_attributes.mvc"
,
"template_id": 63
}
,
"product_display": {
"additionalprice": "base"
,
"advanced": 1
,
"b_height": 274
,
"b_width": 274
,
"button_wish": 1
,
"button_wish_nodisable": 1
,
"constrain": "N"
,
"displaydiscounts": 1
,
"field_code": 1
,
"field_desc": 1
,
"field_name": 1
,
"field_price": 1
,
"field_sku": 0
,
"field_weight": 1
,
"fields_custom": [
{
"code": "benefits"
,
"module": "customfields"
}
,
{
"code": "candle_basics"
,
"module": "customfields"
}
,
{
"code": "details"
,
"module": "customfields"
}
,
{
"code": "weight"
,
"module": "customfields"
}
,
{
"code": "essential_oils"
,
"module": "customfields"
}
,
{
"code": "indications"
,
"module": "customfields"
}
,
{
"code": "ingredients"
,
"module": "customfields"
}
,
{
"code": "artificial_dyes"
,
"module": "customfields"
}
,
{
"code": "parabens"
,
"module": "customfields"
}
,
{
"code": "synthetic_fragrance"
,
"module": "customfields"
}
,
{
"code": "unit"
,
"module": "customfields"
}
]
,
"image": "F"
,
"imagemachine_enabled": 0
,
"imagetypes": [
"large"
]
,
"invmsg": "L"
,
"predictdiscounts": 1
,
"price": "sale"
,
"template_filename": "prod-product_display.mvc"
,
"template_id": 62
}
,
"product_display_imagemachine": {
"closeup_active": 1
,
"closeup_close": "closeup_close"
,
"closeup_div": "closeup_div"
,
"closeup_height": 960
,
"closeup_image": "closeup_image"
,
"closeup_size": "B"
,
"closeup_width": 960
,
"enabled": 1
,
"head": {
"template_filename": "prod-product_display_imagemachine-head.mvc"
,
"template_id": 59
}
,
"image_height": 640
,
"image_size": "B"
,
"image_width": 640
,
"legacy_image": "N"
,
"main_image": "main_image"
,
"preload": 1
,
"thumb_active": 1
,
"thumb_height": 100
,
"thumb_width": 100
,
"thumbnails": "thumbnails"
}
,
"related_products": {
"additionalprice": "base"
,
"advanced": 1
,
"b_height": 360
,
"b_width": 360
,
"button_add": 1
,
"button_buy": 1
,
"col_num": 2
,
"col_sel": "D"
,
"constrain": "B"
,
"default_sort": "disp_order"
,
"displaydiscounts": 0
,
"field_code": 1
,
"field_desc": 0
,
"field_name": 1
,
"field_price": 1
,
"field_sku": 0
,
"field_weight": 0
,
"format": "X"
,
"image": "T"
,
"imagemachine_enabled": 0
,
"imagetypes": [
"main"
]
,
"invmsg": "L"
,
"items_per_page_filter": 0
,
"linkexcludecat": 0
,
"mode": "relp"
,
"page_disp_count": 0
,
"per_page": 0
,
"predictdiscounts": 1
,
"price": "sale"
,
"reverse_default_disp_order": 0
,
"sort_by": {
"best": 1
,
"code": 0
,
"name": 0
,
"new": 1
,
"price": 1
,
"switch": 0
}
,
"template_filename": "prod-related_products.mvc"
,
"template_id": 64
}
,
"related_products_imagemachine": {
"closeup_active": 0
,
"closeup_close": "closeup_close_\u0025product_id\u0025"
,
"closeup_div": "closeup_div_\u0025product_id\u0025"
,
"closeup_height": 500
,
"closeup_image": "closeup_image_\u0025product_id\u0025"
,
"closeup_size": "N"
,
"closeup_width": 500
,
"enabled": 0
,
"image_height": 144
,
"image_size": "B"
,
"image_width": 234
,
"legacy_image": "T"
,
"main_image": "main_image_\u0025product_id\u0025"
,
"preload": 0
,
"thumb_active": 1
,
"thumb_height": 42
,
"thumb_width": 42
,
"thumbnails": "thumbnails_\u0025product_id\u0025"
}
,
"seo_settings": {
"cat_lit": "category"
,
"cat_lit_choice": "category"
,
"plit_in_bc": 0
,
"prod_lit": "product"
,
"prod_lit_choice": "product"
,
"sc_always": 0
,
"sf_active": 0
,
"sl_active": 0
,
"sm_active": 1
,
"suffix": "html"
,
"suffix_choice": "html"
,
"surlprefix": "https:\/\/www.joyouscs.com\/"
,
"url_delim": "\/"
,
"urlprefix": "http:\/\/www.joyouscs.com\/"
}
}
,
"source": ""
,
"templ_id": 57
,
"user_id": 4
}
