{
"dtstamp": 1595990318
,
"id": 855
,
"immutable": 0
,
"notes": "Updated by Framework \u0027shadows\u0027 on 07\/28\/2020 22:38:38 EDT"
,
"settings": {
"template_filename": "uatr-product_attributes.mvc"
,
"template_id": 149
}
,
"source": ""
,
"templ_id": 149
,
"user_id": 0
}
