{
"dtstamp": 1544071672
,
"id": 217
,
"immutable": 1
,
"notes": "Original"
,
"settings": {
"mode": "tokens_only_nodisplay"
,
"template_filename": "wish-wishlist.mvc"
}
,
"source": ""
,
"templ_id": 217
,
"user_id": 0
}
