{
"dtstamp": 1544074825
,
"id": 568
,
"immutable": 0
,
"notes": "Updated by Framework \u0027shadows\u0027 on 12\/06\/2018 00:40:25 EST"
,
"settings": {
"mode": "wishlist_edit"
,
"template_filename": "wled-wishlist.mvc"
,
"template_id": 226
}
,
"source": ""
,
"templ_id": 226
,
"user_id": 0
}
