{
"dtstamp": 1544074824
,
"id": 515
,
"immutable": 0
,
"notes": "Updated by Framework \u0027shadows\u0027 on \u002812\/06\/2018 00:40:24 EST\u0029"
,
"settings": {
"hdft": {
"footer": {
"template_filename": "wlst-footer.mvc"
,
"template_id": 229
}
,
"header": {
"template_filename": "wlst-header.mvc"
,
"template_id": 228
}
}
,
"seo_settings": {
"cat_lit": "category"
,
"cat_lit_choice": "category"
,
"plit_in_bc": 0
,
"prod_lit": "product"
,
"prod_lit_choice": "product"
,
"sc_always": 0
,
"sf_active": 0
,
"sl_active": 0
,
"sm_active": 1
,
"suffix": "html"
,
"suffix_choice": "html"
,
"surlprefix": "https:\/\/www.joyouscs.com\/"
,
"url_delim": "\/"
,
"urlprefix": "http:\/\/www.joyouscs.com\/"
}
,
"wishlists": {
"advanced": 1
,
"default_sort": "id"
,
"field_name": 1
,
"field_notes": 1
,
"field_title": 1
,
"items_per_page_filter": 1
,
"page_disp_count": 3
,
"per_page": 12
,
"reverse_default_disp_order": 0
,
"sort_by": {
"fname": 1
,
"lname": 1
,
"switch": 1
,
"title": 1
}
,
"template_filename": "wlst-wishlists.mvc"
,
"template_id": 230
}
}
,
"source": ""
,
"templ_id": 227
,
"user_id": 0
}
