{
"active": 1
,
"code": "checkout_steps"
,
"css_class": ""
,
"css_id": ""
,
"descrip": ""
,
"managedtemplateversion": {
"dtstamp": 1595990319
,
"id": 867
,
"immutable": 1
,
"notes": "Original"
,
"settings": ""
,
"source": ""
,
"templ_id": 526
,
"user_id": 0
}
,
"name": "Checkout Page Steps"
,
"original_code": "checkout_steps"
,
"templ_id": 526
,
"wrap_div": 1
}
