{
"code": "static_navigation"
,
"descrip": "This is the side navigation for all static content pages."
,
"items": [
{
"active": 1
,
"disp_order": 154
,
"id": 154
,
"items": ""
,
"link": "\u003Ca href\u003D\"https:\/\/www.joyouscs.com\/about-us.html\" target\u003D\"_self\"\u003EAbout Us\u003C\/a\u003E"
,
"link_dest": "ABUS"
,
"link_targ": "_self"
,
"link_type": "G"
,
"name": "About Us"
,
"url": "https:\/\/www.joyouscs.com\/about-us.html"
}
,
{
"active": 1
,
"disp_order": 155
,
"id": 155
,
"items": [
{
"active": 1
,
"disp_order": 156
,
"id": 156
,
"items": ""
,
"link": "\u003Ca href\u003D\"https:\/\/www.joyouscs.com\/mm5\/merchant.mvc\u003FScreen\u003DCTGY\u0026Category_Code\u003DSub-cat-1\" target\u003D\"_self\"\u003ESubcategory 1\u003C\/a\u003E"
,
"link_dest": "Sub-cat-1"
,
"link_targ": "_self"
,
"link_type": "C"
,
"name": "Subcategory 1"
,
"url": "https:\/\/www.joyouscs.com\/mm5\/merchant.mvc\u003FScreen\u003DCTGY\u0026Category_Code\u003DSub-cat-1"
}
,
{
"active": 1
,
"disp_order": 157
,
"id": 157
,
"items": ""
,
"link": "\u003Ca href\u003D\"https:\/\/www.joyouscs.com\/mm5\/merchant.mvc\u003FScreen\u003DCTGY\u0026Category_Code\u003DSub-cat-2\" target\u003D\"_self\"\u003ESubcategory 2\u003C\/a\u003E"
,
"link_dest": "Sub-cat-2"
,
"link_targ": "_self"
,
"link_type": "C"
,
"name": "Subcategory 2"
,
"url": "https:\/\/www.joyouscs.com\/mm5\/merchant.mvc\u003FScreen\u003DCTGY\u0026Category_Code\u003DSub-cat-2"
}
]
,
"link": "\u003Ca href\u003D\"https:\/\/www.joyouscs.com\/contact-us.html\" target\u003D\"_self\"\u003EContact Us\u003C\/a\u003E"
,
"link_dest": "CTUS"
,
"link_targ": "_self"
,
"link_type": "G"
,
"name": "Contact Us"
,
"url": "https:\/\/www.joyouscs.com\/contact-us.html"
}
,
{
"active": 1
,
"disp_order": 158
,
"id": 158
,
"items": [
{
"active": 1
,
"disp_order": 159
,
"id": 159
,
"items": ""
,
"link": "\u003Ca href\u003D\"https:\/\/www.joyouscs.com\/mm5\/merchant.mvc\u003FScreen\u003DCTGY\u0026Category_Code\u003DSub-cat-3\" target\u003D\"_self\"\u003ESubcategory 3\u003C\/a\u003E"
,
"link_dest": "Sub-cat-3"
,
"link_targ": "_self"
,
"link_type": "C"
,
"name": "Subcategory 3"
,
"url": "https:\/\/www.joyouscs.com\/mm5\/merchant.mvc\u003FScreen\u003DCTGY\u0026Category_Code\u003DSub-cat-3"
}
,
{
"active": 1
,
"disp_order": 160
,
"id": 160
,
"items": ""
,
"link": "\u003Ca href\u003D\"https:\/\/www.joyouscs.com\/mm5\/merchant.mvc\u003FScreen\u003DCTGY\u0026Category_Code\u003DSub-cat-4\" target\u003D\"_self\"\u003ESubcategory 4\u003C\/a\u003E"
,
"link_dest": "Sub-cat-4"
,
"link_targ": "_self"
,
"link_type": "C"
,
"name": "Subcategory 4"
,
"url": "https:\/\/www.joyouscs.com\/mm5\/merchant.mvc\u003FScreen\u003DCTGY\u0026Category_Code\u003DSub-cat-4"
}
]
,
"link": "\u003Ca href\u003D\"https:\/\/www.joyouscs.com\/faqs.html\" target\u003D\"_self\"\u003EFrequently Asked Questions\u003C\/a\u003E"
,
"link_dest": "FAQS"
,
"link_targ": "_self"
,
"link_type": "G"
,
"name": "Frequently Asked Questions"
,
"url": "https:\/\/www.joyouscs.com\/faqs.html"
}
,
{
"active": 1
,
"disp_order": 161
,
"id": 161
,
"items": ""
,
"link": "\u003Ca href\u003D\"https:\/\/www.joyouscs.com\/privacy-policy.html\" target\u003D\"_self\"\u003EPrivacy Policy\u003C\/a\u003E"
,
"link_dest": "PRPO"
,
"link_targ": "_self"
,
"link_type": "G"
,
"name": "Privacy Policy"
,
"url": "https:\/\/www.joyouscs.com\/privacy-policy.html"
}
,
{
"active": 1
,
"disp_order": 162
,
"id": 162
,
"items": ""
,
"link": "\u003Ca href\u003D\"https:\/\/www.joyouscs.com\/shipping-and-return-policy.html\" target\u003D\"_self\"\u003EShipping \u0026amp\u003B Return Policy\u003C\/a\u003E"
,
"link_dest": "SARP"
,
"link_targ": "_self"
,
"link_type": "G"
,
"name": "Shipping \u0026 Return Policy"
,
"url": "https:\/\/www.joyouscs.com\/shipping-and-return-policy.html"
}
]
,
"layout": "S"
,
"managedtemplateversion": {
"dtstamp": 1595990319
,
"id": 886
,
"immutable": 0
,
"notes": "Updated by Framework \u0027shadows\u0027 on 07\/28\/2020 22:38:39 EDT"
,
"settings": ""
,
"source": ""
,
"templ_id": 541
,
"user_id": 0
}
,
"name": "Static Page Navigation"
,
"original_code": "static_navigation"
,
"templ_id": 541
}
